m-IF_Stroma layering
…
## `summarise()` has grouped output by 'Stain', 'Compartment'. You can override
## using the `.groups` argument.

summary_raw_intense_CompLayer

## # A tibble: 30 × 8
## # Groups:   Stain, Compartment [10]
##    Stain           Compartment Layer  count  mean    sd median   IQR
##    <fct>           <fct>       <fct>  <int> <dbl> <dbl>  <dbl> <dbl>
##  1 Cell..ASMA.mean Lobule      Inner    630 61.9  34.7  58.3   41.9 
##  2 Cell..ASMA.mean Lobule      Middle   608 51.2  33.4  45.0   39.8 
##  3 Cell..ASMA.mean Lobule      Outer    602 48.9  32.3  45.1   40.6 
##  4 Cell..ASMA.mean Stroma      Inner   3272 74.4  39.3  68.9   46.3 
##  5 Cell..ASMA.mean Stroma      Middle  3117 68.4  35.5  62.8   42.5 
##  6 Cell..ASMA.mean Stroma      Outer   2937 61.3  30.8  56.6   37.7 
##  7 Cell..NGFR.mean Lobule      Inner    630  6.81 12.6   2.59   6.80
##  8 Cell..NGFR.mean Lobule      Middle   608  8.06 11.7   3.65   9.09
##  9 Cell..NGFR.mean Lobule      Outer    602  9.56 13.8   3.62  11.2 
## 10 Cell..NGFR.mean Stroma      Inner   3272  1.89  7.31  0.666  1.89
## # ℹ 20 more rows
…
## `summarise()` has grouped output by 'Stain', 'Layer'. You can override using
## the `.groups` argument.

summary_comp_sp

## # A tibble: 30 × 8
## # Groups:   Stain, Layer [15]
##    Stain    Layer  Compartment count   mean     sd median    IQR
##    <fct>    <fct>  <fct>       <int>  <dbl>  <dbl>  <dbl>  <dbl>
##  1 NGFR_pos Inner  Lobule         47 0.133  0.177  0.0357 0.236 
##  2 NGFR_pos Inner  Stroma         74 0.0108 0.0387 0      0     
##  3 NGFR_pos Middle Lobule         47 0.169  0.207  0.125  0.2   
##  4 NGFR_pos Middle Stroma         74 0.0107 0.0343 0      0     
##  5 NGFR_pos Outer  Lobule         47 0.236  0.243  0.2    0.369 
##  6 NGFR_pos Outer  Stroma         74 0.0265 0.0631 0      0.0232
##  7 ASMA_pos Inner  Lobule         47 0.448  0.278  0.444  0.395 
##  8 ASMA_pos Inner  Stroma         74 0.535  0.200  0.515  0.263 
##  9 ASMA_pos Middle Lobule         47 0.268  0.205  0.267  0.314 
## 10 ASMA_pos Middle Stroma         74 0.450  0.234  0.408  0.306 
## # ℹ 20 more rows
…
Dunn_PKRstroma_comp_sp <- spcell_calc_frsub %>%
  group_by(Stain, Compartment) %>%
  dunn_test(pos_fraction ~ Layer, p.adjust.method = "BH") 
Dunn_PKRstroma_comp_sp

## # A tibble: 30 × 11
##    Compartment Stain   .y.   group1 group2    n1    n2 statistic       p   p.adj
##  * <fct>       <fct>   <chr> <chr>  <chr>  <int> <int>     <dbl>   <dbl>   <dbl>
##  1 Lobule      NGFR_p… pos_… Inner  Middle    47    47     1.12  2.61e-1 2.61e-1
##  2 Lobule      NGFR_p… pos_… Inner  Outer     47    47     2.30  2.16e-2 6.49e-2
##  3 Lobule      NGFR_p… pos_… Middle Outer     47    47     1.17  2.41e-1 2.61e-1
##  4 Stroma      NGFR_p… pos_… Inner  Middle    74    74     0.364 7.16e-1 7.16e-1
##  5 Stroma      NGFR_p… pos_… Inner  Outer     74    74     3.32  8.86e-4 2.66e-3
##  6 Stroma      NGFR_p… pos_… Middle Outer     74    74     2.96  3.07e-3 4.61e-3
##  7 Lobule      ASMA_p… pos_… Inner  Middle    47    47    -3.02  2.54e-3 3.81e-3
##  8 Lobule      ASMA_p… pos_… Inner  Outer     47    47    -3.65  2.64e-4 7.92e-4
##  9 Lobule      ASMA_p… pos_… Middle Outer     47    47    -0.630 5.29e-1 5.29e-1
## 10 Stroma      ASMA_p… pos_… Inner  Middle    74    74    -2.44  1.47e-2 2.21e-2
## # ℹ 20 more rows
## # ℹ 1 more variable: p.adj.signif <chr>
…
## `summarise()` has grouped output by 'Stain', 'Layer'. You can override using
## the `.groups` argument.

summary_ls_msp

## # A tibble: 30 × 8
## # Groups:   Stain, Layer [15]
##    Stain    Layer  Compartment count   mean     sd median    IQR
##    <fct>    <fct>  <fct>       <int>  <dbl>  <dbl>  <dbl>  <dbl>
##  1 NGFR_pos Inner  Lobule         47 0.133  0.177  0.0357 0.236 
##  2 NGFR_pos Inner  Stroma         74 0.0108 0.0387 0      0     
##  3 NGFR_pos Middle Lobule         47 0.169  0.207  0.125  0.2   
##  4 NGFR_pos Middle Stroma         74 0.0107 0.0343 0      0     
##  5 NGFR_pos Outer  Lobule         47 0.236  0.243  0.2    0.369 
##  6 NGFR_pos Outer  Stroma         74 0.0265 0.0631 0      0.0232
##  7 ASMA_pos Inner  Lobule         47 0.448  0.278  0.444  0.395 
##  8 ASMA_pos Inner  Stroma         74 0.535  0.200  0.515  0.263 
##  9 ASMA_pos Middle Lobule         47 0.268  0.205  0.267  0.314 
## 10 ASMA_pos Middle Stroma         74 0.450  0.234  0.408  0.306 
## # ℹ 20 more rows
…
